    Povesti;Mihai Eminescu,Ion Caragiale,Ion Creanga;1973;povesti,povestiri
Poezii;Sadoveanu;1973;poezii
Enigma Otiliei;George Calinescu;1948;enigma,otilia
Dale carnavalului;Caragiale Ion;1948;caragiale,carnaval
Intampinarea crailor;Mateiu Caragiale;1948;mateiu,crailor
Amintiri din Copilarie;Ion Creanga;1860;furat,copii
;Armando Sanchez;1999;drama,iubire
;Armando Sanchez;1999;drama,iubire
Amintiri;Ion Creanga;1860;furat,copii
Amintiri;Ion Creanga;1860;furat,copii
La Munte;Ioan;1399;munte,frig
Amintiri;Ion Creanga;1860;furat,copii
La Munte;Ioan;1399;munte,frig
Amintiri;Ion Creanga;1860;furat,copii
Muntele;Ioan;1399;munte,frig
Amintiri;Ion Creanga;1860;furat,copii
Muntele;Ioan;1399;munte,frig
Amintiri;Ion Creanga;1860;furat,copii
M;Janos;1860;mate,geometrie
Muntele;Ioan;1399;munte,frig
Amintiri;Ion Creanga;1860;furat,copii
M;Janos;1860;mate,geometrie
Muntele;Ioan;1399;munte,frig
Amintiri;Ion Creanga;1860;furat,copii
M;Janos;1860;mate,geometrie
Muntele;Ioan;1399;munte,frig
Amintiri;Ion Creanga;1860;furat,copii
M;Janos;1860;mate,geometrie
Muntele;Ioan;1399;munte,frig
Amintiri;Ion Creanga;1860;furat,copii
M;Janos;1860;mate,geometrie
Muntele;Ioan;1399;munte,frig
Amintiri;Ion Creanga;1860;furat,copii
M;Janos;1860;mate,geometrie
Muntele;Ioan;1399;munte,frig
Amintiri;Ion Creanga;1860;furat,copii
M;Janos;1860;mate,geometrie
Muntele;Ioan;1399;munte,frig
Amintiri;Ion Creanga;1860;furat,copii
M;Janos;1860;mate,geometrie
Muntele;Ioan;1399;munte,frig
Amintiri;Ion Creanga;1860;furat,copii
M;Janos;1860;mate,geometrie
Muntele;Ioan;1399;munte,frig
Amintiri;Ion Creanga;1860;furat,copii
M;Janos;1860;mate,geometrie
Muntele;Ioan;1399;munte,frig
Amintiri;Ion Creanga;1860;furat,copii
M;Janos;1860;mate,geometrie
Muntele;Ioan;1399;munte,frig
Amintiri;Ion Creanga;1860;furat,copii
M;Janos;1860;mate,geometrie
Muntele;Ioan;1399;munte,frig
Amintiri;Ion Creanga;1860;furat,copii
M;Janos;1860;mate,geometrie
Muntele;Ioan;1399;munte,frig
Manastur;Andreeea,Nelson;2019;maaai,aloo,dar,nu
Amintiri;Ion Creanga;1860;furat,copii
M;Janos;1860;mate,geometrie
Muntele;Ioan;1399;munte,frig
Amintiri;Ion Creanga;1860;furat,copii
M;Janos;1860;mate,geometrie
Muntele;Ioan;1399;munte,frig
Amintiri;Ion Creanga;1860;furat,copii
Muntele;Ioan;1399;munte,frig
Manastur2;Andreeea,Nelson;2019;maaai,aloo,dar,nu
Amintiri;Ion Creanga;1860;furat,copii
M;Janos;1860;mate,geometrie
Manastur2;Andreeea,Nelson;2019;maaai,aloo,dar,nu
Amintiri;Ion Creanga;1860;furat,copii
M;Janos;1860;mate,geometrie
Manastur2;Andreeea,Nelson;2019;maaai,aloo,dar,nu
Amintiri;Ion Creanga;1860;furat,copii
M;Janos;1860;mate,geometrie
Manastur2;Andreeea,Nelson;2019;maaai,aloo,dar,nu
Amintiri;Ion Creanga;1860;furat,copii
M;Janos;1860;mate,geometrie
Manastur2;Andreeea,Nelson;2019;maaai,aloo,dar,nu
Amintiri;Ion Creanga;1860;furat,copii
M;Janos;1860;mate,geometrie
Manastur2;Andreeea,Nelson;2019;maaai,aloo,dar,nu
Amintiri;Ion Creanga;1860;furat,copii
M;Janos;1860;mate,geometrie
Manastur2;Andreeea,Nelson;2019;maaai,aloo,dar,nu
titlu;;1982;cuvinte
titlu;Alex;1956;cuv
Titlu;Ioan;1644;cheie
titlu;;1982;cuvinte
titlu;Alex;1956;cuv
Titlu;Ioan;1644;cheie
titlu;;1982;cuvinte
titlu;Alex;1956;cuv
Titlu;Ioan;1644;cheie
titlu;;1982;cuvinte
titlu;Alex;1956;cuv
Titlu;Ioan;1644;cheie
titlu;;1982;cuvinte
titlu;Alex;1956;cuv
Titlu;Ioan;1644;cheie
titlu;;1982;cuvinte
titlu;Alex;1956;cuv
Titlu;Ioan;1644;cheie
titlu;;1982;cuvinte
titlu;Alex;1956;cuv
Titlu;Ioan;1644;cheie
titlu;;1982;cuvinte
titlu;Alex;1956;cuv
Titlu;Ioan;1644;cheie
titlu;;1982;cuvinte
titlu;Alex;1956;cuv
Titlu;Ioan;1644;cheie
titlu;;1982;cuvinte
titlu;Alex;1956;cuv
Titlu;Ioan;1644;cheie
titlu;;1982;cuvinte
titlu;Alex;1956;cuv
Titlu;Ioan;1644;cheie
titlu;;1982;cuvinte
titlu;Alex;1956;cuv
Titlu;Ioan;1644;cheie
Amintiri;Ion Creanga;1860;furat,copii
M;Janos;1860;mate,geometrie
Manastur2;Andreeea,Nelson;2019;maaai,aloo,dar,nu
titlu;;1982;cuvinte
titlu;Alex;1956;cuv
Titlu;Ioan;1644;cheie
titlu;;1982;cuvinte
titlu;Alex;1956;cuv
Titlu;Ioan;1644;cheie
titlu;;1982;cuvinte
titlu;Alex;1956;cuv
Titlu;Ioan;1644;cheie
titlu;;1982;cuvinte
titlu;Alex;1956;cuv
Titlu;Ioan;1644;cheie
Amintiri;Ion Creanga;1860;furat,copii
M;Janos;1860;mate,geometrie
Manastur2;Andreeea,Nelson;2019;maaai,aloo,dar,nu
titlu;;1982;cuvinte
titlu;Alex;1956;cuv
Titlu;Ioan;1644;cheie
